rel,src,alt
custom,1,Custom Engraving
custom,2,Custom Engraving
custom,3,Custom Engraving
custom,4,Custom Engraving
custom,5,Custom Engraving
custom,6,Custom Engraving
custom,7,Custom Engraving
custom,8,Custom Engraving
custom,9,Custom Engraving
custom,10,Custom Engraving
custom,11,Custom Engraving
glass,1,Glass Engraving
glass,2,Glass Engraving
glass,3,Glass Engraving
industrial,1,Industrial Engraving
industrial,2,Industrial Engraving
industrial,3,Industrial Engraving
industrial,4,Industrial Engraving
industrial,5,Industrial Engraving
industrial,6,Industrial Engraving
jewelry,1,Jewelry Engraving
jewelry,2,Jewelry Engraving
jewelry,3,Jewelry Engraving
jewelry,4,Jewelry Engraving
jewelry,5,Jewelry Engraving
sign,1,Sign Making
sign,2,Sign Making
sign,3,Sign Making
sign,4,Sign Making
sign,5,Sign Making
sign,6,Sign Making
sign,7,Sign Making
